A Tidy Analysis of Australian Animal Outcomes
…
## [1] row      col      expected actual  
## <0 rows> (or 0-length row.names)

problems(complaints)

## [1] row      col      expected actual  
## <0 rows> (or 0-length row.names)

problems(brisbane_complaints)

## # A tibble: 3,933 x 5
##      row col                expected           actual                          file        
##    <int> <chr>              <chr>              <chr>                           <chr>       
##  1  8736 responsible_office 1/0/T/F/TRUE/FALSE City Safety (Animal Management) <raw vector>
##  2  8737 responsible_office 1/0/T/F/TRUE/FALSE Environmental Management Team   <raw vector>
##  3  8738 responsible_office 1/0/T/F/TRUE/FALSE Enforcement Animal Attack       <raw vector>
##  4  8739 responsible_office 1/0/T/F/TRUE/FALSE Environmental Management Team   <raw vector>
##  5  8740 responsible_office 1/0/T/F/TRUE/FALSE Environmental Management Team   <raw vector>
##  6  8741 responsible_office 1/0/T/F/TRUE/FALSE City Safety (Animal Management) <raw vector>
##  7  8742 responsible_office 1/0/T/F/TRUE/FALSE Enforcement Animal Attack       <raw vector>
##  8  8743 responsible_office 1/0/T/F/TRUE/FALSE City Safety (Animal Management) <raw vector>
##  9  8744 responsible_office 1/0/T/F/TRUE/FALSE Environmental Management Team   <raw vector>
## 10  8745 responsible_office 1/0/T/F/TRUE/FALSE Enforcement Animal Attack       <raw vector>
## # … with 3,923 more rows
…
